K-Nearest Neighbor
…
  Decision Tree

  Random Forest

  K-Nearest Neighbor

  Support Vector Machine

K-Nearest Neighbor

Model with Five RTL Group Levels

Initial Predictions

## # A tibble: 5,640 × 12
##    `.pred_0-6` `.pred_13-18` `.pred_19-24` `.pred_25-30` `.pred_7-12`  .row neighbors
##          <dbl>         <dbl>         <dbl>         <dbl>        <dbl> <int>     <int>
##  1         0.5           0.5             0           0              0    10         2
##  2         1             0               0           0              0    23         2
##  3         1             0               0           0              0    24         2
##  4         1             0               0           0              0    26         2
##  5         0.5           0.5             0           0              0    35         2
##  6         1             0               0           0              0    37         2
##  7         0             0.5             0           0.5            0    38         2
##  8         1             0               0           0              0    40         2
##  9         1             0               0           0              0    49         2
## 10         1             0               0           0              0    58         2
## # … with 5,630 more rows, and 5 more variables: weight_func <chr>, dist_power <dbl>,
## #   .pred_class <fct>, rtl_group <fct>, .config <chr>

## # A tibble: 5,640 × 13
##    id     `.pred_0-6` `.pred_13-18` `.pred_19-24` `.pred_25-30` `.pred_7-12`  .row neighbors
##    <chr>        <dbl>         <dbl>         <dbl>         <dbl>        <dbl> <int>     <int>
##  1 Fold01         0.5           0.5             0           0              0    10         2
##  2 Fold01         1             0               0           0              0    23         2
##  3 Fold01         1             0               0           0              0    24         2
##  4 Fold01         1             0               0           0              0    26         2
##  5 Fold01         0.5           0.5             0           0              0    35         2
##  6 Fold01         1             0               0           0              0    37         2
##  7 Fold01         0             0.5             0           0.5            0    38         2
##  8 Fold01         1             0               0           0              0    40         2
##  9 Fold01         1             0               0           0              0    49         2
## 10 Fold01         1             0               0           0              0    58         2
## # … with 5,630 more rows, and 5 more variables: weight_func <chr>, dist_power <dbl>,
## #   .pred_class <fct>, rtl_group <fct>, .config <chr>
…
Final Predictions

##           Truth
## Prediction 0-6 13-18 19-24 25-30 7-12
##      0-6    35    45    27     5   65
##      13-18   0     2     3     1    5
##      19-24   0     0     0     0    0
##      25-30   0     0     0     0    0
##      7-12    1     0     0     0    2

Model with Two RTL Group Levels

Initial Predictions

## # A tibble: 5,650 × 9
##    `.pred_0-12` `.pred_13-30`  .row neighbors weight_func dist_power .pred_class rtl_group
##           <dbl>         <dbl> <int>     <int> <chr>            <dbl> <fct>       <fct>    
##  1            1             0    10        10 biweight          1.10 0-12        0-12     
##  2            1             0    23        10 biweight          1.10 0-12        0-12     
##  3            1             0    24        10 biweight          1.10 0-12        0-12     
##  4            1             0    26        10 biweight          1.10 0-12        0-12     
##  5            1             0    35        10 biweight          1.10 0-12        0-12     
##  6            1             0    37        10 biweight          1.10 0-12        0-12     
##  7            1             0    38        10 biweight          1.10 0-12        0-12     
##  8            1             0    40        10 biweight          1.10 0-12        0-12     
##  9            1             0    49        10 biweight          1.10 0-12        0-12     
## 10            1             0    58        10 biweight          1.10 0-12        0-12     
## # … with 5,640 more rows, and 1 more variable: .config <chr>

## # A tibble: 5,650 × 10
##    id     `.pred_0-12` `.pred_13-30`  .row neighbors weight_func dist_power .pred_class rtl_group
##    <chr>         <dbl>         <dbl> <int>     <int> <chr>            <dbl> <fct>       <fct>    
##  1 Fold01            1             0    10        10 biweight          1.10 0-12        0-12     
##  2 Fold01            1             0    23        10 biweight          1.10 0-12        0-12     
##  3 Fold01            1             0    24        10 biweight          1.10 0-12        0-12     
##  4 Fold01            1             0    26        10 biweight          1.10 0-12        0-12     
##  5 Fold01            1             0    35        10 biweight          1.10 0-12        0-12     
##  6 Fold01            1             0    37        10 biweight          1.10 0-12        0-12     
##  7 Fold01            1             0    38        10 biweight          1.10 0-12        0-12     
##  8 Fold01            1             0    40        10 biweight          1.10 0-12        0-12     
##  9 Fold01            1             0    49        10 biweight          1.10 0-12        0-12     
## 10 Fold01            1             0    58        10 biweight          1.10 0-12        0-12     
## # … with 5,640 more rows, and 1 more variable: .config <chr>
…
